%YAML 1.1
%TAG !u! tag:unity3d.com,2011:
--- !u!1 &7291536727659940310
GameObject:
  m_ObjectHideFlags: 0
  m_CorrespondingSourceObject: {fileID: 0}
  m_PrefabInstance: {fileID: 0}
  m_PrefabAsset: {fileID: 0}
  serializedVersion: 6
  m_Component:
  - component: {fileID: 1054884897412841530}
  m_Layer: 0
  m_Name: DirectionCellChange
  m_TagString: Untagged
  m_Icon: {fileID: 0}
  m_NavMeshLayer: 0
  m_StaticEditorFlags: 0
  m_IsActive: 1
--- !u!4 &1054884897412841530
Transform:
  m_ObjectHideFlags: 0
  m_CorrespondingSourceObject: {fileID: 0}
  m_PrefabInstance: {fileID: 0}
  m_PrefabAsset: {fileID: 0}
  m_GameObject: {fileID: 7291536727659940310}
  m_LocalRotation: {x: -0, y: -0, z: -0, w: 1}
  m_LocalPosition: {x: 0, y: 0, z: 0}
  m_LocalScale: {x: 1, y: 1, z: 1}
  m_ConstrainProportionsScale: 0
  m_Children:
  - {fileID: 7517727600206717885}
  m_Father: {fileID: 0}
  m_RootOrder: 0
  m_LocalEulerAnglesHint: {x: 0, y: 0, z: 0}
--- !u!1001 &8947106009691538070
PrefabInstance:
  m_ObjectHideFlags: 0
  serializedVersion: 2
  m_Modification:
    m_TransformParent: {fileID: 1054884897412841530}
    m_Modifications:
    - target: {fileID: 1335394330515411, guid: c3eb369f5399f3b48bcef1813beeeef5, type: 3}
      propertyPath: m_Name
      value: Push Cell
      objectReference: {fileID: 0}
    - target: {fileID: 4613131694726993, guid: c3eb369f5399f3b48bcef1813beeeef5, type: 3}
      propertyPath: m_LocalRotation.w
      value: 0.5
      objectReference: {fileID: 0}
    - target: {fileID: 4613131694726993, guid: c3eb369f5399f3b48bcef1813beeeef5, type: 3}
      propertyPath: m_LocalRotation.x
      value: -0.5
      objectReference: {fileID: 0}
    - target: {fileID: 4613131694726993, guid: c3eb369f5399f3b48bcef1813beeeef5, type: 3}
      propertyPath: m_LocalRotation.y
      value: 0.5
      objectReference: {fileID: 0}
    - target: {fileID: 4613131694726993, guid: c3eb369f5399f3b48bcef1813beeeef5, type: 3}
      propertyPath: m_LocalRotation.z
      value: 0.5
      objectReference: {fileID: 0}
    - target: {fileID: 4613131694726993, guid: c3eb369f5399f3b48bcef1813beeeef5, type: 3}
      propertyPath: m_LocalEulerAnglesHint.y
      value: 90
      objectReference: {fileID: 0}
    - target: {fileID: 4653079080655560, guid: c3eb369f5399f3b48bcef1813beeeef5, type: 3}
      propertyPath: m_LocalRotation.w
      value: 0
      objectReference: {fileID: 0}
    - target: {fileID: 4653079080655560, guid: c3eb369f5399f3b48bcef1813beeeef5, type: 3}
      propertyPath: m_LocalRotation.y
      value: 1
      objectReference: {fileID: 0}
    - target: {fileID: 4653079080655560, guid: c3eb369f5399f3b48bcef1813beeeef5, type: 3}
      propertyPath: m_LocalRotation.z
      value: 0
      objectReference: {fileID: 0}
    - target: {fileID: 4653079080655560, guid: c3eb369f5399f3b48bcef1813beeeef5, type: 3}
      propertyPath: m_LocalEulerAnglesHint.y
      value: 180
      objectReference: {fileID: 0}
    - target: {fileID: 1476851824665682219, guid: c3eb369f5399f3b48bcef1813beeeef5, type: 3}
      propertyPath: m_RootOrder
      value: 0
      objectReference: {fileID: 0}
    - target: {fileID: 1476851824665682219, guid: c3eb369f5399f3b48bcef1813beeeef5, type: 3}
      propertyPath: m_LocalPosition.x
      value: -6.34
      objectReference: {fileID: 0}
    - target: {fileID: 1476851824665682219, guid: c3eb369f5399f3b48bcef1813beeeef5, type: 3}
      propertyPath: m_LocalPosition.y
      value: 0
      objectReference: {fileID: 0}
    - target: {fileID: 1476851824665682219, guid: c3eb369f5399f3b48bcef1813beeeef5, type: 3}
      propertyPath: m_LocalPosition.z
      value: -10.999997
      objectReference: {fileID: 0}
    - target: {fileID: 1476851824665682219, guid: c3eb369f5399f3b48bcef1813beeeef5, type: 3}
      propertyPath: m_LocalRotation.w
      value: 0.7071068
      objectReference: {fileID: 0}
    - target: {fileID: 1476851824665682219, guid: c3eb369f5399f3b48bcef1813beeeef5, type: 3}
      propertyPath: m_LocalRotation.x
      value: 0
      objectReference: {fileID: 0}
    - target: {fileID: 1476851824665682219, guid: c3eb369f5399f3b48bcef1813beeeef5, type: 3}
      propertyPath: m_LocalRotation.y
      value: 0.7071068
      objectReference: {fileID: 0}
    - target: {fileID: 1476851824665682219, guid: c3eb369f5399f3b48bcef1813beeeef5, type: 3}
      propertyPath: m_LocalRotation.z
      value: 0
      objectReference: {fileID: 0}
    - target: {fileID: 1476851824665682219, guid: c3eb369f5399f3b48bcef1813beeeef5, type: 3}
      propertyPath: m_LocalEulerAnglesHint.x
      value: -0
      objectReference: {fileID: 0}
    - target: {fileID: 1476851824665682219, guid: c3eb369f5399f3b48bcef1813beeeef5, type: 3}
      propertyPath: m_LocalEulerAnglesHint.y
      value: -90
      objectReference: {fileID: 0}
    - target: {fileID: 1476851824665682219, guid: c3eb369f5399f3b48bcef1813beeeef5, type: 3}
      propertyPath: m_LocalEulerAnglesHint.z
      value: 0
      objectReference: {fileID: 0}
    - target: {fileID: 3821938898908923058, guid: c3eb369f5399f3b48bcef1813beeeef5, type: 3}
      propertyPath: TwoWay
      value: 5
      objectReference: {fileID: 0}
    m_RemovedComponents: []
  m_SourcePrefab: {fileID: 100100000, guid: c3eb369f5399f3b48bcef1813beeeef5, type: 3}
--- !u!4 &7517727600206717885 stripped
Transform:
  m_CorrespondingSourceObject: {fileID: 1476851824665682219, guid: c3eb369f5399f3b48bcef1813beeeef5, type: 3}
  m_PrefabInstance: {fileID: 8947106009691538070}
  m_PrefabAsset: {fileID: 0}
